^D:\PROGRAMMING\SET2\SET2\X64\DEBUG\GROUPCONTAINER.OBJ|D:\PROGRAMMING\SET2\SET2\X64\DEBUG\MAIN.OBJ|D:\PROGRAMMING\SET2\SET2\X64\DEBUG\SET.OBJ|D:\PROGRAMMING\SET2\SET2\X64\DEBUG\TEST.OBJ
/OUT:"D:\PROGRAMMING\SET2\X64\DEBUG\SET2.EXE" /INCREMENTAL /NOLOGO KERNEL32.LIB USER32.LIB GDI32.LIB WINSPOOL.LIB COMDLG32.LIB ADVAPI32.LIB SHELL32.LIB OLE32.LIB OLEAUT32.LIB UUID.LIB ODBC32.LIB ODBCCP32.LIB /MANIFEST /MANIFESTUAC:"level='asInvoker' uiAccess='false'" /manifest:embed /DEBUG:FASTLINK /PDB:"D:\PROGRAMMING\SET2\X64\DEBUG\SET2.PDB" /SUBSYSTEM:CONSOLE /TLBID:1 /DYNAMICBASE /NXCOMPAT /IMPLIB:"D:\PROGRAMMING\SET2\X64\DEBUG\SET2.LIB" /MACHINE:X64 X64\DEBUG\GROUPCONTAINER.OBJ
X64\DEBUG\MAIN.OBJ
X64\DEBUG\SET.OBJ
X64\DEBUG\TEST.OBJ
